Auvray;Damien;2018-06-01 08:15;2018-06-01 18:15;0;null;accounting;Employee
Leroy;Valentin;2018-06-01 08:00;2018-06-01 19:00;0;loic.gervois@etu.univ-tours.fr;accounting;Leader
Marlin;Alexis;2018-06-01 08:00;2018-06-01 19:00;0;null;accounting;Employee
Datee;Nicolas;2018-06-01 08:00;2018-06-01 19:00;0;loic.gervois@etu.univ-tours.fr;accounting;Employee
Guillot;Donovan;2018-06-01 08:00;2018-06-01 18:00;0;null;service;Employee
